%YAML 1.1
%TAG !u! tag:unity3d.com,2011:
--- !u!114 &11400000
MonoBehaviour:
  m_ObjectHideFlags: 0
  m_PrefabParentObject: {fileID: 0}
  m_PrefabInternal: {fileID: 0}
  m_GameObject: {fileID: 0}
  m_Enabled: 1
  m_EditorHideFlags: 0
  m_Script: {fileID: 11500000, guid: 9f3758f8f58fdef43803eb9be1df0608, type: 3}
  m_Name: PhotonServerSettings
  m_EditorClassIdentifier: 
  AppID: b5528de9-1ebd-46d8-830b-33f1e5c0d0e6
  VoiceAppID: 
  ChatAppID: 26186575-af4a-4a1e-96f1-2e5cf6d75d46
  HostType: 1
  PreferredRegion: 0
  EnabledRegions: -1
  Protocol: 0
  ServerAddress: 
  ServerPort: 5055
  VoiceServerPort: 5055
  JoinLobby: 0
  EnableLobbyStatistics: 0
  PunLogging: 0
  NetworkLogging: 1
  RunInBackground: 1
  RpcList:
  - Chat
  - DestroyRpc
  - InstantiateRpc
  - PickupItemInit
  - PunPickup
  - PunPickupSimple
  - PunRespawn
  - RequestForPickupItems
  - RequestForPickupTimes
  - SpawnBullet
  - HealthChange
  - SetDeltaTime
  - GetServerTime
  - ColorRpc
  - DoJump
  - Flash
  - Marco
  - Polo
  - TaggedPlayer
  - AddMessage_RPC
  - GetKill
  - RightShot
  - LeftShot
  - GetDamage
  - SendDamage
  - GetShot
  DisableAutoOpenWizard: 1
