%YAML 1.1
%TAG !u! tag:unity3d.com,2011:
--- !u!21 &2100000
Material:
  serializedVersion: 6
  m_ObjectHideFlags: 0
  m_PrefabParentObject: {fileID: 0}
  m_PrefabInternal: {fileID: 0}
  m_Name: RopeStairs_D
  m_Shader: {fileID: 2, guid: 0000000000000000f000000000000000, type: 0}
  m_ShaderKeywords: 
  m_LightmapFlags: 4
  m_EnableInstancingVariants: 0
  m_DoubleSidedGI: 0
  m_CustomRenderQueue: -1
  stringTagMap: {}
  disabledShaderPasses: []
  m_SavedProperties:
    serializedVersion: 3
    m_TexEnvs:
    - _BumpMap:
        m_Texture: {fileID: 2800000, guid: ff675f7e6d83b3841a5ddd1d22723845, type: 3}
        m_Scale: {x: 1, y: 1}
        m_Offset: {x: 0, y: 0}
    - _MainTex:
        m_Texture: {fileID: 2800000, guid: 26b1ed8d94651b4459faa20dbe3fc4e9, type: 3}
        m_Scale: {x: 1, y: 1}
        m_Offset: {x: 0, y: 0}
    - _ParallaxMap:
        m_Texture: {fileID: 2800000, guid: 3149cdbe0349835479ccbd67220c43f4, type: 3}
        m_Scale: {x: 1, y: 1}
        m_Offset: {x: 0, y: 0}
    m_Floats:
    - _EdgeLength: 10.31171
    - _Parallax: 0.12
    - _ParallaxOffset: 0
    - _RimPower: 0.5
    - _Shininess: 0.26260832
    m_Colors:
    - _Color: {r: 0.588, g: 0.588, b: 0.588, a: 1}
    - _RimColor: {r: 0.5597015, g: 0.5597015, b: 0.5597015, a: 1}
    - _SpecColor: {r: 0.37034976, g: 0.49049196, b: 0.5223881, a: 1}
