%YAML 1.1
%TAG !u! tag:unity3d.com,2011:
--- !u!21 &2100000
Material:
  serializedVersion: 6
  m_ObjectHideFlags: 0
  m_PrefabParentObject: {fileID: 0}
  m_PrefabInternal: {fileID: 0}
  m_Name: Tessela_D
  m_Shader: {fileID: 4800000, guid: e6301e54e4a0f0144a2699685ccb2498, type: 3}
  m_ShaderKeywords: 
  m_LightmapFlags: 4
  m_EnableInstancingVariants: 0
  m_DoubleSidedGI: 0
  m_CustomRenderQueue: -1
  stringTagMap: {}
  disabledShaderPasses: []
  m_SavedProperties:
    serializedVersion: 3
    m_TexEnvs:
    - _BumpMap:
        m_Texture: {fileID: 2800000, guid: c71ecb0e8cb2fc94bb3f5ecc5e0687c9, type: 3}
        m_Scale: {x: 1, y: 1}
        m_Offset: {x: 0, y: 0}
    - _Cube:
        m_Texture: {fileID: 8900000, guid: 229370e3a0506e046ade1e973447dc47, type: 3}
        m_Scale: {x: 1, y: 1}
        m_Offset: {x: 0, y: 0}
    - _MainTex:
        m_Texture: {fileID: 2800000, guid: 55f02065378d2d14ba6f73251b3ad421, type: 3}
        m_Scale: {x: 1, y: 1}
        m_Offset: {x: 0, y: 0}
    m_Floats:
    - _RefPower: 5
    - _RimPower: 3
    - _Shininess: 0.078125
    m_Colors:
    - _Color: {r: 0.588, g: 0.588, b: 0.588, a: 1}
    - _ReflectColor: {r: 0.75, g: 0.75, b: 0.75, a: 0.5}
    - _RimColor: {r: 0.544442, g: 0.668545, b: 0.70149255, a: 1}
    - _SpecColor: {r: 0.5, g: 0.5, b: 0.5, a: 1}
