%YAML 1.1
%TAG !u! tag:unity3d.com,2011:
--- !u!21 &2100000
Material:
  serializedVersion: 6
  m_ObjectHideFlags: 0
  m_PrefabParentObject: {fileID: 0}
  m_PrefabInternal: {fileID: 0}
  m_Name: WoodProps2_D 1
  m_Shader: {fileID: 4800000, guid: 0619d6295b7ae0e41864b17c4463fad3, type: 3}
  m_ShaderKeywords: 
  m_LightmapFlags: 4
  m_EnableInstancingVariants: 0
  m_DoubleSidedGI: 0
  m_CustomRenderQueue: -1
  stringTagMap: {}
  disabledShaderPasses: []
  m_SavedProperties:
    serializedVersion: 3
    m_TexEnvs:
    - _BumpMap:
        m_Texture: {fileID: 2800000, guid: 7ca9f4290b7939946b76c256751864f5, type: 3}
        m_Scale: {x: 1, y: 1}
        m_Offset: {x: 0, y: 0}
    - _MainTex:
        m_Texture: {fileID: 2800000, guid: 46676f6833da8aa47a95012dbd98c98c, type: 3}
        m_Scale: {x: 1, y: 1}
        m_Offset: {x: 0, y: 0}
    m_Floats:
    - _RimPower: 0.5
    - _Shininess: 0.078125
    m_Colors:
    - _Color: {r: 1, g: 1, b: 1, a: 1}
    - _RimColor: {r: 0.6567164, g: 0.6567164, b: 0.6567164, a: 1}
    - _SpecColor: {r: 0.5, g: 0.5, b: 0.5, a: 1}
