%YAML 1.1
%TAG !u! tag:unity3d.com,2011:
--- !u!21 &2100000
Material:
  serializedVersion: 6
  m_ObjectHideFlags: 0
  m_PrefabParentObject: {fileID: 0}
  m_PrefabInternal: {fileID: 0}
  m_Name: CannonSmokeHuge
  m_Shader: {fileID: 4800000, guid: c497030182b42424cb3c03fb766a4591, type: 3}
  m_ShaderKeywords: ALPHAEROSION_ON ALPHA_ERODE DISTANCE_FADE EMISSION_ON FIXED_PER_PIXEL_NORMAL
    FOUR_LIGHTS HEIGHT_CLIPPED LIGHT_BLEADTHROUGH LIGHT_WRAP_AROUND SIMPLE_EMMISIVE
    VARIABLE_SHADOWING_EFFECT VERTEX_ONLY_LIGHTS VERTEX_ONLY_SPOTLIGHTS _ALPHATEST_ON
    _ALPHA_STYLE_ERODE _AMBIENT_LIGHT_FIXED _AMBIENT_LIGHT_PROBE _CAST_SHADOWS_DITHERED
    _DISTANCE_FADE_OFF _EMISSION _EMISSIVE_NONE _GLOSSYREFLECTIONS_OFF _LIGHT_COUNT_FOUR
    _LIGHT_QUALITY_PIXEL_ONLY _LIGHT_STYLE_WRAP_AROUND _NON_SQUARE_UV_OFF _NORMAL_STYLE_PIXEL
    _OVERLAY_MULTIPLY _SHADOWING_EFFECT_VARIABLE _SOFT_PARTICLE_HEIGHT _SPECULARHIGHLIGHTS_OFF
    _SPOTLIGHT_QUALITY_VERTEX
  m_LightmapFlags: 1
  m_EnableInstancingVariants: 0
  m_CustomRenderQueue: -1
  stringTagMap: {}
  disabledShaderPasses: []
  m_SavedProperties:
    serializedVersion: 3
    m_TexEnvs:
    - _BumpMap:
        m_Texture: {fileID: 2800000, guid: 6ca912be17ff047fdb2d4169344ff59a, type: 3}
        m_Scale: {x: 1, y: 1}
        m_Offset: {x: 0, y: 0}
    - _DetailAlbedoMap:
        m_Texture: {fileID: 0}
        m_Scale: {x: 1, y: 1}
        m_Offset: {x: 0, y: 0}
    - _DetailMask:
        m_Texture: {fileID: 0}
        m_Scale: {x: 1, y: 1}
        m_Offset: {x: 0, y: 0}
    - _DetailNormalMap:
        m_Texture: {fileID: 0}
        m_Scale: {x: 1, y: 1}
        m_Offset: {x: 0, y: 0}
    - _EmissionMap:
        m_Texture: {fileID: 0}
        m_Scale: {x: 1, y: 1}
        m_Offset: {x: 0, y: 0}
    - _MainTex:
        m_Texture: {fileID: 2800000, guid: 0987f9dd21c824591804c52795671172, type: 3}
        m_Scale: {x: 1, y: 1}
        m_Offset: {x: 0, y: 0}
    - _MetallicGlossMap:
        m_Texture: {fileID: 0}
        m_Scale: {x: 1, y: 1}
        m_Offset: {x: 0, y: 0}
    - _NormalMap:
        m_Texture: {fileID: 2800000, guid: 1cc6af448947ef04195db0a03c99d10e, type: 3}
        m_Scale: {x: 1, y: 1}
        m_Offset: {x: 0, y: 0}
    - _OcclusionMap:
        m_Texture: {fileID: 0}
        m_Scale: {x: 1, y: 1}
        m_Offset: {x: 0, y: 0}
    - _ParallaxMap:
        m_Texture: {fileID: 0}
        m_Scale: {x: 1, y: 1}
        m_Offset: {x: 0, y: 0}
    - _ShadowDitherTex:
        m_Texture: {fileID: 2800000, guid: 11d3a5aba3683024b81c3ae1e0c0d6ea, type: 3}
        m_Scale: {x: 1, y: 1}
        m_Offset: {x: 0, y: 0}
    m_Floats:
    - _AlphaMode: 1
    - _Alpha_Style: 1
    - _Ambient_Light: 1
    - _BackLight: 2
    - _BlendMode: 0
    - _BumpScale: 1
    - _Cast_Shadows: 2
    - _Culling: 2
    - _Cutoff: 0.98
    - _Density: 1.13
    - _DetailNormalMapScale: 1
    - _DistanceFadeEnd: 1
    - _DistanceFadeRate: 1.25
    - _DistanceFadeStart: 0.2
    - _Distance_Fade: 0
    - _DstBlend: 0
    - _Emissive: 0
    - _FadeEnd: 10
    - _FadeStart: 3.18
    - _GlossMapScale: 1
    - _Glossiness: 0.82
    - _GlossyReflections: 0
    - _HeightClippedFadeRate: 2.1
    - _HeightClippedOffset: 0
    - _InvFade: 0.16
    - _LightBleadthrough: 0.344
    - _LightComputationSetting: 0
    - _LightCount: 0
    - _LightWrapAround: 0.6
    - _Light_Count: 2
    - _Light_Quality: 2
    - _Light_Style: 1
    - _LightingMode: 1
    - _Metallic: 0.39
    - _Mode: 1
    - _Non_Square_Uv: 0
    - _NormalBend: 0.56
    - _NormalEffect: 1
    - _NormalSharpness: 1
    - _NormalStrenght: 1.08
    - _NormalStrength: 1.84
    - _Normal_Style: 1
    - _OcclusionStrength: 1
    - _Overlay: 2
    - _Parallax: 0.02
    - _ShadowEffectMultiplyer: 0.6
    - _Shadowing_Effect: 1
    - _SmoothnessTextureChannel: 0
    - _Soft_Particle: 1
    - _SpecularHighlights: 0
    - _Spotlight_Quality: 1
    - _SrcBlend: 1
    - _Thickness: 0.44
    - _UVSec: 0
    - _UseMeshTangent: 0
    - _ZWrite: 1
    - _fShadowClip: 0.4
    - _fShadowMultiplyer: 0.13
    m_Colors:
    - _Color: {r: 0.61580884, g: 0.61625254, b: 0.625, a: 1}
    - _EmisColor: {r: 0.2, g: 0.2, b: 0.2, a: 0}
    - _EmissionColor: {r: 0, g: 0, b: 0, a: 1}
    - _FixedAmbientColour: {r: 0.04873225, g: 0.053009026, b: 0.057, a: 0}
    - _ParticleColour: {r: 1, g: 1, b: 1, a: 1}
    - _TintColor: {r: 0.667712, g: 0.6831206, b: 0.6985294, a: 1}
    - _UVRowsAndColumbs: {r: 1, g: 1, b: 0, a: 0}
    - _fNonSquareUVFactor: {r: 1, g: 1, b: 0, a: 0}
