%YAML 1.1
%TAG !u! tag:unity3d.com,2011:
--- !u!1045 &1
EditorBuildSettings:
  m_ObjectHideFlags: 0
  serializedVersion: 2
  m_Scenes:
  - enabled: 1
    path: Assets/_scenes/Login.unity
    guid: c33c97d41e307494bb6d620fd31aecda
  - enabled: 1
    path: Assets/_scenes/Loading.unity
    guid: c3fbcc27238cead4f881370fc0f58bed
  - enabled: 1
    path: Assets/_scenes/Lobby.unity
    guid: 64a994dac0de1af4797cc6c0bf75e8de
  - enabled: 1
    path: Assets/_scenes/Game.unity
    guid: 8fe205151b368ae4fb4faf97631ef080
  - enabled: 1
    path: Assets/_scenes/FailedConnected.unity
    guid: e84bbb361a2990a4b8e2e2cd20419933
